{
  "page" : {
    "size" : 2,
    "totalElements" : 4,
    "totalPages" : 2,
    "number" : 0
  },
  "_embedded": {
    "data": [
      {
        "fruit": "apple",
        "color": "green",
        "weight": {
          "kg": "0.12gr",
          "gr": "120gr"
        }
      },
      {
        "color": "yellow",
        "fruit": "banana",
        "weight": {
          "kg": "0.12gr",
          "gr": "120gr"
        }
      }
    ]
  }
}
