{
  "page" : {
    "size" : 2,
    "totalElements" : 4,
    "totalPages" : 2,
    "number" : 0
  },
  "_embedded": {
    "data": [
      {
        "fruit": "apple",
        "color": "green"
      },
      {
        "color": "yellow",
        "fruit": "banana"
      }
    ]
  }
}
