{
  "page" : {
    "size" : 2,
    "totalElements" : 4,
    "totalPages" : 2,
    "number" : 1
  },
  "_embedded": {
    "data": [
      {
        "color": "orange",
        "fruit": "orange"
      },
      {
        "fruit": "strawberry",
        "color": "pink"
      }
    ]
  }
}
